<svg width="98" height="61" viewBox="0 0 98 61" fill="none" xmlns="http://www.w3.org/2000/svg">
<path d="M69.4825 7.46875H78.2153C78.8396 7.46875 79.428 7.76023 79.8063 8.25682L91.591 23.7274C91.8563 24.0757 92 24.5015 92 24.9393V43.4268C92 44.5314 91.1046 45.4268 90 45.4268H79.206" stroke="#3A733E" stroke-width="4"/>
<circle cx="72.0559" cy="44.7835" r="8.29371" fill="white" stroke="#3A733E" stroke-width="4"/>
<circle cx="22.5175" cy="44.7835" r="8.29371" fill="white" stroke="#3A733E" stroke-width="4"/>
<path d="M12.5455 2H69.4825V35.4545" stroke="#3A733E" stroke-width="4"/>
<line x1="61.7622" y1="46.7832" x2="32.1678" y2="46.7832" stroke="#3A733E" stroke-width="4"/>
<line x1="91.3566" y1="25.5522" x2="69.4825" y2="25.5522" stroke="#3A733E" stroke-width="4"/>
<line x1="31.5245" y1="15.9019" y2="15.9019" stroke="#3A733E" stroke-width="4"/>
<line x1="36.028" y1="25.5522" x2="4.5035" y2="25.5522" stroke="#3A733E" stroke-width="4"/>
<circle cx="85" cy="48" r="13" fill="white"/>
<path d="M85 35C77.8175 35 72 40.8175 72 48C72 55.1825 77.8175 61 85 61C92.1825 61 98 55.1825 98 48C98 40.8175 92.1825 35 85 35ZM84.0006 55.5725H81.8231L76.5581 48.195L78.7372 46.1637L82.9119 50.0638L91.266 40.4259L93.4435 41.9534L84.0006 55.5725V55.5725Z" fill="#57D024"/>
</svg>
