<svg width="56" height="56" viewBox="0 0 56 56" fill="none" xmlns="http://www.w3.org/2000/svg">
<mask id="path-1-inside-1" fill="white">
<path d="M55.332 48.1033C52.8597 46.1985 46.2773 40.9376 40.1466 34.6155C36.0718 30.4111 34.3387 26.202 31.2496 23.0158C28.4516 20.1301 25.9065 18.4483 25.9065 18.4483L25.1898 19.1874L20.3479 14.1944L22.2182 12.2653C22.3701 12.1068 22.4548 11.8959 22.4548 11.6764C22.4548 11.4569 22.3701 11.2459 22.2182 11.0875L21.8318 10.689C21.8337 10.6871 27.3363 3.28245 34.2939 5.33008C35.1022 5.56993 35.8227 5.97777 36.0271 5.76965C36.3052 5.48407 35.2459 4.38653 34.6253 3.7519C25.8235 -5.25428 16.1145 4.78224 16.1099 4.78691L15.7674 4.43319C15.6937 4.35623 15.6051 4.29499 15.5071 4.25315C15.4091 4.21131 15.3037 4.18974 15.1971 4.18974C15.0906 4.18974 14.9851 4.21131 14.8871 4.25315C14.7891 4.29499 14.7006 4.35623 14.6269 4.43319L6.0043 13.3255C5.85245 13.484 5.76768 13.6949 5.76768 13.9144C5.76768 14.1339 5.85245 14.3449 6.0043 14.5033C6.0043 14.5033 7.05984 16.3503 4.29173 16.6825C3.17739 16.8178 2.47929 17.0689 2.08358 17.4002C1.46588 18.0232 0.850224 18.6482 0.236615 19.2752C0.0847707 19.4336 0 19.6446 0 19.8641C0 20.0835 0.0847707 20.2945 0.236615 20.453L6.68933 27.1091C6.76311 27.1861 6.85171 27.2474 6.94979 27.2892C7.04786 27.3311 7.15339 27.3527 7.26003 27.3527C7.36666 27.3527 7.47219 27.3311 7.57027 27.2892C7.66835 27.2474 7.75695 27.1861 7.83073 27.1091C7.83073 27.1091 9.60957 25.2519 9.64783 25.2034C9.96795 24.7946 10.2125 24.076 10.3413 22.9262C10.666 20.0703 12.4542 21.1604 12.4542 21.1604C12.5279 21.2377 12.6166 21.2991 12.7147 21.3412C12.8129 21.3832 12.9186 21.4048 13.0254 21.4048C13.1322 21.4048 13.2378 21.3832 13.336 21.3412C13.4342 21.2991 13.5228 21.2377 13.5965 21.1604L15.4668 19.2313L20.3068 24.2234L19.5901 24.9635C19.5901 24.9635 21.2215 27.5889 24.0194 30.4746C27.1077 33.6599 31.1898 35.4471 35.2655 39.6515C41.3944 45.9736 46.4947 52.7613 48.3445 55.312C49.0426 56.2723 49.1537 56.1837 50.0058 55.3036L52.6647 52.5616L55.3217 49.8206C56.1757 48.9377 56.2634 48.8238 55.332 48.1033"/>
</mask>
<path d="M40.1466 34.6155L37.9923 36.7034L37.9929 36.704L40.1466 34.6155ZM31.2496 23.0158L33.4035 20.9275L33.4034 20.9274L31.2496 23.0158ZM25.9065 18.4483L27.5605 15.9454L25.4848 14.5738L23.7528 16.3599L25.9065 18.4483ZM25.1898 19.1874L23.0361 21.2759L25.1898 23.4969L27.3435 21.2759L25.1898 19.1874ZM20.3479 14.1944L18.194 12.1061L16.1692 14.1946L18.1942 16.2829L20.3479 14.1944ZM22.2182 12.2653L24.3721 14.3535L24.3782 14.3473L24.3842 14.341L22.2182 12.2653ZM22.4548 11.6764L25.4548 11.6764L22.4548 11.6764ZM22.2182 11.0875L24.3842 9.01183L24.3782 9.00551L24.3721 8.99921L22.2182 11.0875ZM21.8318 10.689L19.7105 8.56766L17.6217 10.6564L19.678 12.7773L21.8318 10.689ZM34.2939 5.33008L35.1475 2.45404L35.1409 2.45212L34.2939 5.33008ZM36.0271 5.76965L38.1675 7.87171L38.1763 7.86269L36.0271 5.76965ZM34.6253 3.7519L32.4797 5.84873L32.4804 5.84943L34.6253 3.7519ZM16.1099 4.78691L13.9547 6.87383L16.0755 9.06394L18.2312 6.90823L16.1099 4.78691ZM15.7674 4.43319L13.6007 6.50817L13.6064 6.51416L13.6122 6.52012L15.7674 4.43319ZM14.6269 4.43319L16.7806 6.5216L16.7871 6.51491L16.7936 6.50817L14.6269 4.43319ZM6.0043 13.3255L3.85057 11.2371L3.8444 11.2435L3.83828 11.2498L6.0043 13.3255ZM5.76768 13.9144L2.76768 13.9144L5.76768 13.9144ZM6.0043 14.5033L8.68758 13.1617L8.4845 12.7555L8.17032 12.4276L6.0043 14.5033ZM4.29173 16.6825L3.93421 13.7039L3.93006 13.7044L4.29173 16.6825ZM2.08358 17.4002L0.157696 15.1L0.0511235 15.1892L-0.0467418 15.2879L2.08358 17.4002ZM0.236615 19.2752L-1.90748 17.1769L-1.9185 17.1881L-1.92941 17.1995L0.236615 19.2752ZM0 19.8641L-3 19.8641L0 19.8641ZM0.236615 20.453L-1.92941 22.5286L-1.92341 22.5349L-1.91737 22.5411L0.236615 20.453ZM6.68933 27.1091L8.85521 25.0333L8.84928 25.0272L8.84331 25.021L6.68933 27.1091ZM7.83073 27.1091L9.99661 29.185L11.143 27.9888L10.7412 26.3815L7.83073 27.1091ZM9.64783 25.2034L12.0037 27.0609L12.0098 27.053L9.64783 25.2034ZM10.3413 22.9262L7.36047 22.5872L7.35991 22.5922L10.3413 22.9262ZM12.4542 21.1604L14.6244 19.0891L14.3523 18.804L14.0157 18.5988L12.4542 21.1604ZM13.5965 21.1604L11.4427 19.0722L11.4345 19.0806L11.4263 19.0891L13.5965 21.1604ZM15.4668 19.2313L17.6207 17.1431L15.4668 14.9215L13.313 17.1431L15.4668 19.2313ZM20.3068 24.2234L22.4619 26.3105L24.4842 24.2223L22.4607 22.1352L20.3068 24.2234ZM19.5901 24.9635L17.4351 22.8765L15.8062 24.5583L17.042 26.5469L19.5901 24.9635ZM24.0194 30.4746L26.1733 28.3863L26.1732 28.3862L24.0194 30.4746ZM35.2655 39.6515L33.1114 41.7396L33.1115 41.7397L35.2655 39.6515ZM48.3445 55.312L45.9159 57.0732L45.9179 57.076L48.3445 55.312ZM50.0058 55.3036L47.8521 53.2151L47.8504 53.2168L50.0058 55.3036ZM52.6647 52.5616L54.8184 54.6501L54.8187 54.6497L52.6647 52.5616ZM55.3217 49.8206L57.4758 51.9086L57.4781 51.9063L55.3217 49.8206ZM57.163 45.7269C54.7423 43.8618 48.2873 38.701 42.3002 32.5271L37.9929 36.704C44.2673 43.1742 50.9771 48.5352 53.501 50.4798L57.163 45.7269ZM42.3009 32.5277C40.4625 30.6308 39.1352 28.7187 37.818 26.7598C36.541 24.8607 35.1752 22.7549 33.4035 20.9275L29.0957 25.104C30.4132 26.4629 31.4584 28.0547 32.839 30.1078C34.1793 32.1011 35.7559 34.3958 37.9923 36.7034L42.3009 32.5277ZM33.4034 20.9274C31.894 19.3707 30.456 18.1416 29.3918 17.2984C28.8582 16.8757 28.4146 16.5469 28.0979 16.3195C27.9395 16.2057 27.8124 16.117 27.7214 16.0544C27.6759 16.0231 27.6393 15.9983 27.6123 15.9801C27.5988 15.971 27.5877 15.9635 27.579 15.9577C27.5747 15.9548 27.571 15.9524 27.5679 15.9503C27.5663 15.9493 27.5649 15.9483 27.5637 15.9475C27.5631 15.9471 27.5625 15.9467 27.562 15.9464C27.5617 15.9462 27.5613 15.9459 27.5612 15.9459C27.5608 15.9456 27.5605 15.9454 25.9065 18.4483C24.2526 20.9512 24.2523 20.951 24.252 20.9508C24.2519 20.9507 24.2515 20.9505 24.2513 20.9504C24.251 20.9501 24.2506 20.9499 24.2503 20.9497C24.2497 20.9493 24.2492 20.9489 24.2489 20.9487C24.2483 20.9483 24.2482 20.9483 24.2488 20.9487C24.2499 20.9494 24.2535 20.9518 24.2593 20.9557C24.2709 20.9635 24.2918 20.9777 24.3213 20.998C24.3804 21.0386 24.4741 21.1039 24.5979 21.1929C24.8459 21.3709 25.2135 21.6429 25.6659 22.0014C26.5736 22.7205 27.8072 23.7751 29.0958 25.1041L33.4034 20.9274ZM23.7528 16.3599L23.0361 17.099L27.3435 21.2759L28.0602 20.5367L23.7528 16.3599ZM27.3435 17.099L22.5016 12.1059L18.1942 16.2829L23.0361 21.2759L27.3435 17.099ZM22.5018 16.2826L24.3721 14.3535L20.0643 10.1771L18.194 12.1061L22.5018 16.2826ZM24.3842 14.341C25.0713 13.624 25.4548 12.6694 25.4548 11.6764L19.4548 11.6764C19.4548 11.1223 19.6688 10.5897 20.0522 10.1896L24.3842 14.341ZM25.4548 11.6764C25.4548 10.6834 25.0713 9.72878 24.3842 9.01183L20.0522 13.1632C19.6688 12.7631 19.4548 12.2305 19.4548 11.6764L25.4548 11.6764ZM24.3721 8.99921L23.9857 8.6007L19.678 12.7773L20.0644 13.1758L24.3721 8.99921ZM23.9531 12.8103C24.3712 12.3922 25.2038 11.0992 27.192 9.68657C29.0858 8.34107 31.2314 7.55598 33.447 8.20803L35.1409 2.45212C30.3989 1.05655 26.3143 2.94998 23.7169 4.79537C21.214 6.57366 19.2943 8.98386 19.7105 8.56766L23.9531 12.8103ZM33.4404 8.2061C33.8108 8.31601 33.785 8.33847 34.4076 8.55349C34.5874 8.6156 34.9823 8.74932 35.4358 8.80226C35.767 8.84093 37.0969 8.96187 38.1675 7.87169L33.8866 3.66761C34.3694 3.17597 34.9225 2.96315 35.3297 2.88042C35.7073 2.80372 36.0021 2.82762 36.1316 2.84274C36.3672 2.87025 36.4932 2.92604 36.3663 2.88222C36.2581 2.84484 36.1681 2.80882 35.9245 2.71805C35.7209 2.64218 35.4486 2.54342 35.1475 2.45405L33.4404 8.2061ZM38.1763 7.86269C38.9619 7.05596 39.1055 6.08493 39.0666 5.44501C39.0314 4.86559 38.8497 4.4136 38.7413 4.17638C38.5182 3.68811 38.2109 3.27713 38.0172 3.03198C37.5953 2.49792 37.0633 1.95415 36.7701 1.65436L32.4804 5.84943C32.8079 6.18427 33.1158 6.50659 33.3091 6.75136C33.4231 6.89561 33.3673 6.85224 33.284 6.6699C33.2455 6.58565 33.1057 6.27122 33.0776 5.80896C33.0459 5.2862 33.1617 4.41194 33.8778 3.67661L38.1763 7.86269ZM36.7708 1.65506C34.1565 -1.01994 31.3189 -2.42082 28.4691 -2.85266C25.663 -3.27787 23.0808 -2.72925 20.9731 -1.90248C18.8702 -1.07755 17.1364 0.0634095 15.946 0.97271C15.3444 1.4323 14.8647 1.84564 14.5281 2.15154C14.1855 2.46291 13.9869 2.66725 13.9886 2.66559L18.2312 6.90823C18.234 6.90539 18.3398 6.79507 18.5634 6.59185C18.7931 6.38318 19.1415 6.08201 19.5882 5.74074C20.4947 5.04832 21.7391 4.24216 23.1642 3.68315C24.5846 3.12598 26.0802 2.85384 27.5702 3.07962C29.0164 3.29877 30.6931 4.02065 32.4797 5.84873L36.7708 1.65506ZM18.265 2.69998L17.9225 2.34626L13.6122 6.52012L13.9547 6.87383L18.265 2.69998ZM17.934 2.35821C17.5803 1.98885 17.1555 1.6949 16.6851 1.49408L14.3292 7.01222C14.0548 6.89508 13.807 6.72362 13.6007 6.50817L17.934 2.35821ZM16.6851 1.49408C16.2147 1.29326 15.7086 1.18974 15.1971 1.18974V7.18974C14.8988 7.18974 14.6036 7.12935 14.3292 7.01222L16.6851 1.49408ZM15.1971 1.18974C14.6857 1.18974 14.1796 1.29326 13.7092 1.49408L16.065 7.01222C15.7907 7.12936 15.4954 7.18974 15.1971 7.18974V1.18974ZM13.7092 1.49408C13.2388 1.6949 12.814 1.98885 12.4602 2.35821L16.7936 6.50817C16.5872 6.72362 16.3394 6.89508 16.065 7.01222L13.7092 1.49408ZM12.4732 2.34479L3.85057 11.2371L8.15803 15.4139L16.7806 6.5216L12.4732 2.34479ZM3.83828 11.2498C3.15124 11.9668 2.76768 12.9214 2.76768 13.9144L8.76768 13.9144C8.76768 14.4685 8.55367 15.0011 8.17032 15.4012L3.83828 11.2498ZM2.76768 13.9144C2.76768 14.9074 3.15124 15.862 3.83828 16.579L8.17032 12.4276C8.55367 12.8277 8.76768 13.3603 8.76768 13.9144L2.76768 13.9144ZM6.0043 14.5033C3.39965 15.9919 3.39877 15.9903 3.3979 15.9888C3.39762 15.9883 3.39675 15.9868 3.39618 15.9858C3.39503 15.9838 3.3939 15.9818 3.39278 15.9798C3.39054 15.9758 3.38835 15.9719 3.38621 15.9681C3.38192 15.9604 3.37781 15.953 3.37388 15.9458C3.36601 15.9314 3.35879 15.9178 3.35212 15.9049C3.33888 15.8794 3.3274 15.8558 3.31728 15.8338C3.29804 15.7918 3.27923 15.7454 3.26241 15.6915C3.23884 15.6161 3.16438 15.358 3.22522 14.9851C3.30132 14.5188 3.55902 14.0806 3.91583 13.8104C4.19493 13.599 4.31485 13.6582 3.93421 13.7039L4.64924 19.6611C5.65266 19.5407 6.67868 19.2445 7.53839 18.5933C8.47582 17.8834 8.98866 16.9211 9.14689 15.9515C9.40888 14.3461 8.6184 13.0233 8.68758 13.1617L6.0043 14.5033ZM3.93006 13.7044C2.65352 13.8594 1.23586 14.1973 0.157696 15.1L4.00946 19.7004C3.83607 19.8456 3.74172 19.8556 3.86685 19.8139C3.98586 19.7742 4.2307 19.712 4.65339 19.6606L3.93006 13.7044ZM-0.0467418 15.2879C-0.669045 15.9155 -1.28929 16.5452 -1.90748 17.1769L2.38071 21.3735C2.98974 20.7512 3.60081 20.1308 4.2139 19.5125L-0.0467418 15.2879ZM-1.92941 17.1995C-2.61645 17.9165 -3 18.8711 -3 19.8641L3 19.8641C3 20.4181 2.78599 20.9508 2.40264 21.3508L-1.92941 17.1995ZM-3 19.8641C-3 20.8571 -2.61645 21.8117 -1.92941 22.5286L2.40264 18.3773C2.78599 18.7774 3 19.31 3 19.8641L-3 19.8641ZM-1.91737 22.5411L4.53534 29.1973L8.84331 25.021L2.3906 18.3648L-1.91737 22.5411ZM4.52345 29.185C4.87727 29.5541 5.30211 29.8479 5.77238 30.0485L8.1272 24.5299C8.40131 24.6469 8.64895 24.8181 8.85521 25.0333L4.52345 29.185ZM5.77238 30.0485C6.24264 30.2492 6.74868 30.3527 7.26003 30.3527V24.3527C7.55811 24.3527 7.85308 24.413 8.1272 24.5299L5.77238 30.0485ZM7.26003 30.3527C7.77138 30.3527 8.27741 30.2492 8.74768 30.0485L6.39286 24.5299C6.66698 24.413 6.96195 24.3527 7.26003 24.3527V30.3527ZM8.74768 30.0485C9.21796 29.8479 9.6428 29.5541 9.99661 29.185L5.66485 25.0333C5.8711 24.8181 6.11874 24.6469 6.39286 24.5299L8.74768 30.0485ZM7.83073 27.1091C9.99729 29.1842 9.99729 29.1842 9.99731 29.1842C9.99732 29.1842 9.99735 29.1842 9.99738 29.1842C9.99743 29.1841 9.99752 29.184 9.99763 29.1839C9.99785 29.1837 9.99818 29.1833 9.99861 29.1829C9.99948 29.182 10.0008 29.1806 10.0025 29.1788C10.0059 29.1753 10.0109 29.17 10.0174 29.1632C10.0305 29.1495 10.0497 29.1295 10.0741 29.104C10.123 29.053 10.1928 28.9801 10.2766 28.8925C10.4443 28.7173 10.6684 28.483 10.8939 28.2471C11.119 28.0115 11.3468 27.7729 11.5212 27.5895C11.6081 27.4982 11.6841 27.4181 11.7407 27.3581C11.7685 27.3287 11.7954 27.3001 11.8179 27.2759C11.8286 27.2644 11.8435 27.2483 11.8592 27.231C11.8667 27.2227 11.8799 27.2082 11.8954 27.1906C11.8992 27.1862 11.9478 27.1316 12.0036 27.0608L7.29202 23.3459C7.38665 23.2259 7.49271 23.1162 7.42435 23.1897C7.41661 23.198 7.40136 23.2143 7.37681 23.2403C7.32882 23.2912 7.25958 23.3641 7.17429 23.4538C7.00448 23.6323 6.78038 23.867 6.55601 24.1018C6.33198 24.3363 6.10899 24.5694 5.94192 24.7439C5.85841 24.8312 5.78893 24.9038 5.74034 24.9545C5.71605 24.9799 5.69699 24.9998 5.684 25.0133C5.67751 25.0201 5.67254 25.0253 5.6692 25.0288C5.66753 25.0305 5.66627 25.0319 5.66543 25.0327C5.66501 25.0332 5.66469 25.0335 5.66448 25.0337C5.66438 25.0338 5.6643 25.0339 5.66425 25.034C5.66422 25.034 5.6642 25.034 5.66419 25.034C5.66418 25.034 5.66418 25.034 7.83073 27.1091ZM12.0098 27.053C12.8571 25.971 13.1768 24.5619 13.3226 23.2601L7.35991 22.5922C7.30997 23.0381 7.24722 23.3061 7.20333 23.4463C7.15698 23.5943 7.15707 23.5182 7.28589 23.3537L12.0098 27.053ZM13.322 23.2652C13.3707 22.8373 13.4394 22.9229 13.2517 23.1862C13.1477 23.3323 12.9826 23.5061 12.7452 23.6548C12.5083 23.8032 12.2599 23.8888 12.0315 23.9283C11.6105 24.0013 11.3131 23.9114 11.2211 23.8808C11.1579 23.8597 11.1046 23.8365 11.0585 23.814C11.0342 23.8021 11.009 23.789 10.9822 23.7742C10.9687 23.7667 10.9546 23.7587 10.9398 23.7501C10.9323 23.7457 10.9247 23.7412 10.9169 23.7366C10.913 23.7342 10.909 23.7318 10.905 23.7294C10.9029 23.7282 10.9009 23.727 10.8989 23.7257C10.8978 23.7251 10.8963 23.7242 10.8958 23.7239C10.8942 23.7229 10.8927 23.722 12.4542 21.1604C14.0157 18.5988 14.0142 18.5979 14.0126 18.5969C14.0121 18.5966 14.0105 18.5956 14.0094 18.595C14.0072 18.5937 14.0051 18.5924 14.0028 18.591C13.9984 18.5883 13.9937 18.5855 13.9889 18.5827C13.9794 18.577 13.9692 18.571 13.9584 18.5647C13.9368 18.5521 13.9126 18.5383 13.8859 18.5236C13.8327 18.4942 13.7688 18.4604 13.695 18.4243C13.5498 18.3533 13.3543 18.2673 13.1184 18.1887C12.681 18.0428 11.9162 17.859 11.0075 18.0164C9.99344 18.192 9.04194 18.7547 8.3651 19.7047C7.75085 20.5669 7.47421 21.5871 7.36047 22.5872L13.322 23.2652ZM10.284 23.2317C10.6379 23.6024 11.0633 23.8976 11.5345 24.0992L13.895 18.5831C14.1699 18.7007 14.418 18.8729 14.6244 19.0891L10.284 23.2317ZM11.5345 24.0992C12.0057 24.3009 12.5129 24.4048 13.0254 24.4048V18.4048C13.3243 18.4048 13.6202 18.4655 13.895 18.5831L11.5345 24.0992ZM13.0254 24.4048C13.5379 24.4048 14.0451 24.3009 14.5163 24.0992L12.1557 18.5831C12.4306 18.4655 12.7264 18.4048 13.0254 18.4048V24.4048ZM14.5163 24.0992C14.9875 23.8976 15.4129 23.6024 15.7668 23.2317L11.4263 19.0891C11.6327 18.8729 11.8809 18.7007 12.1557 18.5831L14.5163 24.0992ZM15.7504 23.2486L17.6207 21.3196L13.313 17.1431L11.4427 19.0722L15.7504 23.2486ZM13.313 21.3196L18.153 26.3117L22.4607 22.1352L17.6207 17.1431L13.313 21.3196ZM18.1518 22.1364L17.4351 22.8765L21.7451 27.0506L22.4619 26.3105L18.1518 22.1364ZM19.5901 24.9635C17.042 26.5469 17.0422 26.5473 17.0424 26.5476C17.0425 26.5478 17.0427 26.5482 17.0429 26.5484C17.0432 26.549 17.0436 26.5495 17.044 26.5502C17.0448 26.5514 17.0456 26.5528 17.0466 26.5544C17.0486 26.5575 17.0509 26.5613 17.0537 26.5656C17.0592 26.5744 17.0663 26.5858 17.0751 26.5995C17.0925 26.6271 17.1164 26.6645 17.1466 26.7112C17.2069 26.8045 17.2925 26.9349 17.4025 27.0978C17.6223 27.4233 17.9404 27.8797 18.3496 28.429C19.1657 29.5246 20.3565 31.0065 21.8656 32.5629L26.1732 28.3862C24.8844 27.057 23.8605 25.7833 23.1614 24.8448C22.813 24.3771 22.5484 23.9968 22.3749 23.7399C22.2882 23.6115 22.2245 23.5143 22.1847 23.4528C22.1648 23.422 22.1509 23.4002 22.1431 23.3879C22.1392 23.3817 22.1369 23.378 22.136 23.3766C22.1356 23.376 22.1356 23.3759 22.1359 23.3765C22.1361 23.3768 22.1364 23.3773 22.1368 23.3779C22.137 23.3782 22.1372 23.3785 22.1374 23.3789C22.1375 23.3791 22.1377 23.3794 22.1378 23.3795C22.138 23.3798 22.1382 23.3801 19.5901 24.9635ZM21.8656 32.5628C23.6391 34.3921 25.6858 35.804 27.5268 37.1209C29.4238 38.4778 31.2744 39.8445 33.1114 41.7396L37.4195 37.5635C35.181 35.2542 32.9527 33.625 31.0175 32.2408C29.0265 30.8166 27.488 29.7424 26.1733 28.3863L21.8656 32.5628ZM33.1115 41.7397C39.0974 47.9142 44.1022 54.5723 45.9159 57.0732L50.7731 53.5508C48.8873 50.9504 43.6913 44.0329 37.4195 37.5634L33.1115 41.7397ZM45.9179 57.076C46.0856 57.3067 46.377 57.7039 46.7394 58.0398C47.1232 58.3955 47.9948 59.0639 49.2814 58.9935C50.4036 58.932 51.1556 58.3232 51.4001 58.1203C51.6944 57.8762 51.9854 57.5718 52.1611 57.3904L47.8504 53.2168C47.6001 53.4754 47.5576 53.5121 47.5697 53.5021C47.5895 53.4857 47.7092 53.3864 47.9096 53.2825C48.1226 53.1722 48.4814 53.0283 48.9533 53.0024C50.0184 52.9441 50.6781 53.5096 50.8181 53.6394C50.9367 53.7493 50.9524 53.7974 50.7711 53.548L45.9179 57.076ZM52.1594 57.392L54.8184 54.6501L50.511 50.4732L47.8521 53.2152L52.1594 57.392ZM54.8187 54.6497L57.4758 51.9086L53.1677 47.7325L50.5106 50.4736L54.8187 54.6497ZM57.4781 51.9063C57.6545 51.7239 57.9477 51.4246 58.1816 51.1243C58.386 50.8617 58.935 50.1287 58.9921 49.0614C59.0573 47.8432 58.4635 46.9925 58.107 46.5826C57.7811 46.2079 57.3933 45.9051 57.1675 45.7304L53.4964 50.4762C53.7363 50.6618 53.6869 50.6434 53.5799 50.5203C53.4422 50.362 52.9477 49.73 53.0007 48.7407C53.0241 48.3034 53.1501 47.9677 53.2496 47.7638C53.3431 47.572 53.4329 47.4567 53.4476 47.4379C53.4539 47.4297 53.416 47.4758 53.1654 47.7349L57.4781 51.9063Z" fill="#3A733E" mask="url(#path-1-inside-1)"/>
<path d="M33.2808 20.5135L33.2797 20.5124C32.8711 20.0919 32.4553 19.6784 32.0326 19.2722L38.7682 12.535L39.3645 11.9386L39.1647 11.1192C38.8485 9.8224 38.8718 8.46599 39.2323 7.18078C39.5928 5.89557 40.2783 4.72491 41.2228 3.78167L41.2248 3.77965C42.1675 2.83464 43.338 2.14882 44.6232 1.78851C44.8987 1.71128 45.1774 1.64956 45.4582 1.60338L40.2849 6.77478L39.6723 7.38715L39.8964 8.22382L41.3374 13.6023L41.5615 14.4389L42.3982 14.6631L47.7739 16.1031L48.6103 16.3272L49.2227 15.7149L54.398 10.5395C54.3518 10.8206 54.2901 11.0998 54.2128 11.3757C53.8526 12.6616 53.1673 13.8331 52.2228 14.7772C51.2784 15.7214 50.1066 16.4063 48.8206 16.7661C47.5345 17.1259 46.1774 17.1483 44.8802 16.8313L44.0602 16.6309L43.4634 17.2278L36.3855 24.3065C35.4381 22.9834 34.4333 21.7022 33.2808 20.5135Z" stroke="#3A733E" stroke-width="3"/>
<path d="M21.7785 32.2446L21.7794 32.2454C22.8958 33.3965 24.0981 34.4049 25.3387 35.355L17.2299 43.463L16.6334 44.0594L16.8332 44.8789C17.1494 46.1764 17.1261 47.5335 16.7656 48.8193C16.4051 50.1052 15.7194 51.2766 14.7748 52.2206L14.774 52.2214C14.0523 52.9436 13.1953 53.5165 12.2521 53.9074C11.3089 54.2983 10.2979 54.4995 9.27687 54.4995C8.25586 54.4995 7.24485 54.2983 6.30162 53.9074C5.3584 53.5165 4.50145 52.9436 3.77975 52.2214L3.77922 52.2208C0.741941 49.1843 0.741598 44.2604 3.77895 41.2254L3.7802 41.2242C4.7233 40.2796 5.89402 39.5941 7.1793 39.2339C8.46459 38.8737 9.82104 38.8509 11.1177 39.1679L11.9377 39.3683L12.5345 38.7714L20.4667 30.8383C20.8952 31.3152 21.3325 31.784 21.7785 32.2446ZM10.3296 53.548L11.1661 53.7722L11.7785 53.1598L15.7142 49.2242L16.3264 48.6119L16.1025 47.7756L14.6624 42.3971L14.4383 41.5599L13.6011 41.336L8.22542 39.8978L7.38953 39.6741L6.77747 40.2858L2.84088 44.2196L2.22815 44.8319L2.45222 45.6686L3.89228 51.0462L4.11632 51.8828L4.95291 52.107L10.3296 53.548Z" stroke="#3A733E" stroke-width="3"/>
</svg>
