<svg width="24" height="24" viewBox="0 0 24 24" fill="none" xmlns="http://www.w3.org/2000/svg">
<rect y="0.533203" width="23.4667" height="23.4667" rx="3" fill="#57D024"/>
<path d="M6.93328 20.8001H6.19995C4.5431 20.8001 3.19995 19.4569 3.19995 17.8001V6.7334C3.19995 5.07654 4.5431 3.7334 6.19995 3.7334H6.93328" stroke="white" stroke-width="1.5" stroke-linecap="round" stroke-linejoin="round"/>
<path d="M7 13.4761L11.5558 18L20 6" stroke="white" stroke-width="1.5" stroke-linecap="round" stroke-linejoin="round"/>
</svg>
