<svg width="222" height="199" viewBox="0 0 222 199" fill="none" xmlns="http://www.w3.org/2000/svg">
<path d="M220.053 76.1016C219.973 76.1017 219.895 76.0773 219.83 76.0319L112.118 1.12479C111.79 0.897891 111.4 0.776634 111.002 0.777313C110.603 0.777993 110.214 0.900574 109.887 1.12858L2.95016 76.0312C2.86557 76.0904 2.76089 76.1137 2.65913 76.0958C2.55737 76.078 2.46687 76.0205 2.40755 75.9361C2.34822 75.8516 2.32492 75.7471 2.34278 75.6455C2.36064 75.5439 2.41819 75.4535 2.50277 75.3942L109.439 0.491654C109.897 0.172487 110.442 0.000920035 111 3.6899e-06C111.559 -0.000912655 112.104 0.168864 112.563 0.486526L220.275 75.3935C220.343 75.4408 220.395 75.5086 220.421 75.587C220.448 75.6654 220.449 75.7503 220.424 75.8293C220.399 75.9083 220.35 75.9773 220.283 76.0263C220.216 76.0753 220.135 76.1016 220.052 76.1016L220.053 76.1016Z" fill="#3F3D56"/>
<path d="M9.06079 78.7569L111.108 3.23547L213.929 84.1306L116.365 141.885L63.397 129.829L9.06079 78.7569Z" fill="#E6E6E6"/>
<path d="M67.8679 177.558H17.4543C17.1447 177.558 16.8381 177.497 16.552 177.379C16.2659 177.261 16.0059 177.088 15.7869 176.87C15.5678 176.651 15.3941 176.392 15.2755 176.106C15.157 175.821 15.0959 175.515 15.0959 175.206C15.0959 174.896 15.157 174.59 15.2755 174.305C15.3941 174.019 15.5678 173.76 15.7869 173.541C16.0059 173.323 16.2659 173.15 16.552 173.032C16.8381 172.914 17.1447 172.853 17.4543 172.854H67.8679C68.1774 172.853 68.484 172.914 68.7701 173.032C69.0562 173.15 69.3162 173.323 69.5353 173.541C69.7543 173.76 69.9281 174.019 70.0466 174.305C70.1652 174.59 70.2262 174.896 70.2262 175.206C70.2262 175.515 70.1652 175.821 70.0466 176.106C69.9281 176.392 69.7543 176.651 69.5353 176.87C69.3162 177.088 69.0562 177.261 68.7701 177.379C68.484 177.497 68.1774 177.558 67.8679 177.558Z" fill="#57D024"/>
<path d="M35.5415 167.446H17.4543C17.1447 167.446 16.8381 167.385 16.552 167.267C16.2659 167.149 16.0059 166.976 15.7869 166.758C15.5678 166.539 15.3941 166.28 15.2755 165.994C15.157 165.709 15.0959 165.403 15.0959 165.094C15.0959 164.785 15.157 164.478 15.2755 164.193C15.3941 163.907 15.5678 163.648 15.7869 163.429C16.0059 163.211 16.2659 163.038 16.552 162.92C16.8381 162.802 17.1447 162.741 17.4543 162.742H35.5415C35.8511 162.741 36.1577 162.802 36.4438 162.92C36.7299 163.038 36.9899 163.211 37.2089 163.429C37.428 163.648 37.6017 163.907 37.7203 164.193C37.8388 164.478 37.8999 164.785 37.8999 165.094C37.8999 165.403 37.8388 165.709 37.7203 165.994C37.6017 166.28 37.428 166.539 37.2089 166.758C36.9899 166.976 36.7299 167.149 36.4438 167.267C36.1577 167.385 35.8511 167.446 35.5415 167.446Z" fill="#57D024"/>
<path d="M112.542 120.821C112.159 120.822 111.78 120.748 111.425 120.603L48.4895 94.5262V12.9022C48.4903 12.1805 48.7778 11.4885 49.2889 10.9781C49.8 10.4677 50.493 10.1807 51.2158 10.1798H171.953C172.675 10.1807 173.368 10.4677 173.88 10.9781C174.391 11.4885 174.678 12.1805 174.679 12.9022V94.5832L174.561 94.6337L113.694 120.59C113.329 120.743 112.938 120.822 112.542 120.821Z" fill="white"/>
<path d="M112.542 121.016C112.134 121.016 111.729 120.937 111.351 120.783L48.2949 94.6561V12.9022C48.2958 12.1289 48.6038 11.3875 49.1514 10.8407C49.6991 10.2938 50.4415 9.98623 51.216 9.98535H171.953C172.727 9.98623 173.47 10.2938 174.017 10.8407C174.565 11.3875 174.873 12.1289 174.874 12.9022V94.7116L113.77 120.769C113.382 120.932 112.964 121.016 112.542 121.016ZM49.0738 94.1366L111.648 120.064C112.232 120.3 112.885 120.296 113.466 120.053L174.095 94.1981V12.9022C174.094 12.3351 173.868 11.7915 173.467 11.3904C173.065 10.9894 172.521 10.7639 171.953 10.7632H51.216C50.6481 10.7639 50.1036 10.9894 49.702 11.3904C49.3005 11.7915 49.0746 12.3351 49.0739 12.9022L49.0738 94.1366Z" fill="#3F3D56"/>
<path d="M219.274 75.3239H219.196L174.484 94.3887L113.31 120.473C113.071 120.574 112.814 120.626 112.555 120.628C112.295 120.629 112.038 120.579 111.798 120.481L48.6842 94.3342L2.87427 75.355L2.80429 75.3239H2.72632C2.0035 75.3247 1.31051 75.6117 0.799403 76.1221C0.288293 76.6325 0.000802024 77.3245 0 78.0463V196.278C0.000803053 196.999 0.288293 197.691 0.799403 198.202C1.31051 198.712 2.0035 198.999 2.72632 199H219.274C219.996 198.999 220.689 198.712 221.201 198.202C221.712 197.691 221.999 196.999 222 196.278V78.0463C221.999 77.3245 221.712 76.6325 221.201 76.1221C220.689 75.6117 219.996 75.3247 219.274 75.3239ZM221.221 196.278C221.221 196.793 221.016 197.288 220.65 197.652C220.285 198.017 219.79 198.222 219.274 198.222H2.72632C2.2099 198.222 1.71471 198.017 1.34955 197.652C0.984391 197.288 0.779154 196.793 0.778947 196.278V78.0463C0.779654 77.5434 0.974993 77.0603 1.32412 76.6979C1.67326 76.3355 2.14915 76.1219 2.65234 76.1017L48.6842 95.1743L111.499 121.201C112.179 121.477 112.94 121.473 113.617 121.189L174.484 95.2326L219.352 76.1017C219.854 76.1233 220.329 76.3376 220.677 76.6998C221.025 77.0619 221.22 77.5442 221.221 78.0463V196.278Z" fill="#3F3D56"/>
<path d="M111.913 97.6758C109.59 97.6801 107.328 96.9299 105.469 95.5383L105.354 95.4519L81.0854 76.8975C79.9615 76.0376 79.0182 74.965 78.3094 73.741C77.6006 72.5171 77.1401 71.1657 76.9543 69.764C76.7685 68.3624 76.861 66.9379 77.2265 65.5719C77.592 64.2059 78.2233 62.9252 79.0845 61.8029C79.9456 60.6806 81.0197 59.7386 82.2454 59.0308C83.4712 58.323 84.8245 57.8632 86.2281 57.6777C87.6318 57.4921 89.0583 57.5845 90.4262 57.9495C91.7941 58.3144 93.0767 58.9449 94.2006 59.8048L109.92 71.841L147.067 23.4646C147.929 22.3426 149.003 21.401 150.229 20.6936C151.455 19.9862 152.808 19.5269 154.212 19.3419C155.616 19.1568 157.042 19.2497 158.41 19.6152C159.778 19.9807 161.06 20.6116 162.184 21.472L161.953 21.7851L162.19 21.4765C164.456 23.216 165.939 25.7822 166.313 28.6122C166.688 31.4421 165.922 34.3047 164.185 36.5718L120.491 93.474C119.481 94.7853 118.181 95.8464 116.694 96.5751C115.206 97.3037 113.57 97.6804 111.913 97.6758Z" fill="#57D024"/>
</svg>
